{
  "project_info": {
    "project_number": "283843554068",
    "firebase_url": "https://test-f8e25.firebaseio.com",
    "project_id": "test-f8e25",
    "storage_bucket": "test-f8e25.appspot.com"
  },
  "client": [
    {
      "client_info": {
        "mobilesdk_app_id": "1:283843554068:android:b2012b7a80392e1d",
        "android_client_info": {
          "package_name": "com.example.lethanh"
        }
      },
      "oauth_client": [
        {
          "client_id": "283843554068-a4a87mkhkotpmkabl9o92q9dp5j7ni1u.apps.googleusercontent.com",
          "client_type": 3
        }
      ],
      "api_key": [
        {
          "current_key": "AIzaSyBbDvowrPE6i8YVRMAdBHxEcOxVeNCr3oc"
        }
      ],
      "services": {
        "analytics_service": {
          "status": 1
        },
        "appinvite_service": {
          "status": 1,
          "other_platform_oauth_client": []
        },
        "ads_service": {
          "status": 2
        }
      }
    },
    {
      "client_info": {
        "mobilesdk_app_id": "1:283843554068:android:5e20ad1d86b0e934",
        "android_client_info": {
          "package_name": "com.example.lethanh.firebase"
        }
      },
      "oauth_client": [
        {
          "client_id": "283843554068-n0tgfakfti54nta27jtkjlkr2rcci990.apps.googleusercontent.com",
          "client_type": 1,
          "android_info": {
            "package_name": "com.example.lethanh.firebase",
            "certificate_hash": "3b4a19d459c7434fe6e841823205bb8cc7af836f"
          }
        },
        {
          "client_id": "283843554068-a4a87mkhkotpmkabl9o92q9dp5j7ni1u.apps.googleusercontent.com",
          "client_type": 3
        }
      ],
      "api_key": [
        {
          "current_key": "AIzaSyBbDvowrPE6i8YVRMAdBHxEcOxVeNCr3oc"
        }
      ],
      "services": {
        "analytics_service": {
          "status": 1
        },
        "appinvite_service": {
          "status": 2,
          "other_platform_oauth_client": [
            {
              "client_id": "283843554068-a4a87mkhkotpmkabl9o92q9dp5j7ni1u.apps.googleusercontent.com",
              "client_type": 3
            }
          ]
        },
        "ads_service": {
          "status": 2
        }
      }
    }
  ],
  "configuration_version": "1"
}